%YAML 1.1
%TAG !u! tag:unity3d.com,2011:
--- !u!114 &11400000
MonoBehaviour:
  m_ObjectHideFlags: 0
  m_CorrespondingSourceObject: {fileID: 0}
  m_PrefabInstance: {fileID: 0}
  m_PrefabAsset: {fileID: 0}
  m_GameObject: {fileID: 0}
  m_Enabled: 1
  m_EditorHideFlags: 0
  m_Script: {fileID: 11500000, guid: 7d88c8d1e259a20478838aeb6374966d, type: 3}
  m_Name: InformacionPartida
  m_EditorClassIdentifier: 
  habilidad1Pau: 1
  habilidad2Pau: 0
  habilidad3Pau: 0
  habilidad4Pau: 0
  habilidad1Gerard: 1
  habilidad2Gerard: 0
  habilidad3Gerard: 0
  habilidad4Gerard: 0
  bossCastellbisbalDone: 0
  PickedAb1G: 1
  PickedAb1P: 1
  Obstaculo1CB: 1
  Obstaculo2CB: 0
  Obstaculo3CB: 0
  bossSabadellDone: 0
  PickedAb2G: 0
  PickedAb3P: 0
  bossMGADone: 0
  PickedAb4G: 0
  PickedAb4P: 0
