%YAML 1.1
%TAG !u! tag:unity3d.com,2011:
--- !u!114 &11400000
MonoBehaviour:
  m_ObjectHideFlags: 0
  m_CorrespondingSourceObject: {fileID: 0}
  m_PrefabInstance: {fileID: 0}
  m_PrefabAsset: {fileID: 0}
  m_GameObject: {fileID: 0}
  m_Enabled: 1
  m_EditorHideFlags: 0
  m_Script: {fileID: 11500000, guid: 79da4482cc1ee864d8b2d6310cf25908, type: 3}
  m_Name: Gerard_Habilidad3_Gancho
  m_EditorClassIdentifier: 
  tiempoTotal: 2
  tiempoActual: 0
